strict digraph "" {
        node [label="\N"];
        0       [label="0: start"];
        9       [label="20: arr = [10, 324, 45, 90, 9808]"];
        0 -> 9;
        1       [label="6: enter: largest(arr, n)"];
        3       [label="9: max = arr[0]"];
        1 -> 3;
        11      [label="22: Ans = largest(arr, n)"];
        11 -> 1;
        12      [label="23: print('Largest in given array is', Ans)"];
        11 -> 12        [style=dotted,
                weight=100];
        2       [label="6: exit: largest(arr, n)"];
        2 -> 12;
        8       [label="17: return max"];
        8 -> 2;
        4       [label="14: for: (True if range(1, n) else False)"];
        3 -> 4;
        4 -> 8;
        5       [label="14: i = range(1, n).shift()"];
        4 -> 5;
        7       [label="16: max = arr[i]"];
        6       [label="15: if: (arr[i] > max)"];
        6 -> 7;
        5 -> 6;
        10      [label="21: n = len(arr)"];
        9 -> 10;
        10 -> 11;
        13      [label="0: stop"];
        12 -> 13;
}