<?xml version="1.0" encoding="UTF-8"?>
<graphml>
  <graph>
    <node id="n1">
      <data key="type">function</data>
      <data key="name">max</data>
      <port id="i1">
        <data key="type">ttInteger</data>
        <data key="name"/>
      </port>
      <port id="i2">
        <data key="type">ttInteger</data>
        <data key="name"/>
      </port>
      <port id="o1">
        <data key="type">ttInteger</data>
        <data key="name"/>
      </port>
    </node>
    <node id="n2">
      <data key="type">function</data>
      <data key="name">tmp</data>
      <graph>
        <port id="i1">
          <data key="type">ttInteger</data>
          <data key="name"/>
        </port>
        <port id="o1">
          <data key="type">ttInteger</data>
          <data key="name"/>
        </port>
        <node id="n2::n3">
          <data key="type">+</data>
          <data key="name">Add</data>
          <port id="i1">
            <data key="type">ttInteger</data>
            <data key="name"/>
          </port>
          <port id="i2">
            <data key="type">ttInteger</data>
            <data key="name"/>
          </port>
          <port id="o1">
            <data key="type">ttInteger</data>
            <data key="name"/>
          </port>
        </node>
        <node id="n2::n4">
          <data key="type">const-int</data>
          <data key="name">0</data>
          <port id="o1">
            <data key="type">ttInteger</data>
            <data key="name"/>
          </port>
        </node>
        <edge source="n2" sourceport="i1" target="n2::n3" targetport="i1"/>
        <edge source="n2::n3" sourceport="o1" target="n2" targetport="o1"/>
        <edge source="n2::n4" sourceport="o1" target="n2::n3" targetport="i2"/>
      </graph>
    </node>
    <node id="n5">
      <data key="type">function</data>
      <data key="name">Main</data>
      <graph>
        <port id="i1">
          <data key="type">ttInteger</data>
          <data key="name"/>
        </port>
        <port id="i2">
          <data key="type">ttInteger</data>
          <data key="name"/>
        </port>
        <port id="i3">
          <data key="type">ttInteger</data>
          <data key="name"/>
        </port>
        <port id="o1">
          <data key="type">ttInteger</data>
          <data key="name"/>
        </port>
        <node id="n5::n6">
          <data key="type">const-function</data>
          <data key="name">max</data>
          <port id="o1">
            <data key="type">ttFunction { ttNull { ttInteger, ttInteger }, ttNull { ttInteger } }</data>
            <data key="name"/>
          </port>
        </node>
        <node id="n5::n7">
          <data key="type">call</data>
          <data key="name">Call</data>
          <port id="i1">
            <data key="type">ttFunction { ttNull { ttInteger, ttInteger }, ttNull { ttInteger } }</data>
            <data key="name"/>
          </port>
          <port id="i2">
            <data key="type">ttInteger</data>
            <data key="name"/>
          </port>
          <port id="i3">
            <data key="type">ttInteger</data>
            <data key="name"/>
          </port>
          <port id="o1">
            <data key="type">ttInteger</data>
            <data key="name"/>
          </port>
        </node>
        <node id="n5::n8">
          <data key="type">const-function</data>
          <data key="name">tmp</data>
          <port id="o1">
            <data key="type">ttFunction { ttNull { ttInteger }, ttNull { ttInteger } }</data>
            <data key="name"/>
          </port>
        </node>
        <node id="n5::n9">
          <data key="type">call</data>
          <data key="name">Call</data>
          <port id="i1">
            <data key="type">ttFunction { ttNull { ttInteger }, ttNull { ttInteger } }</data>
            <data key="name"/>
          </port>
          <port id="i2">
            <data key="type">ttInteger</data>
            <data key="name"/>
          </port>
          <port id="o1">
            <data key="type">ttInteger</data>
            <data key="name"/>
          </port>
        </node>
        <node id="n5::n10">
          <data key="type">for</data>
          <data key="name">Forall</data>
          <graph>
            <port id="i1">
              <data key="type">ttInteger</data>
              <data key="name"/>
            </port>
            <port id="i2">
              <data key="type">ttInteger</data>
              <data key="name"/>
            </port>
            <port id="i3">
              <data key="type">ttInteger</data>
              <data key="name"/>
            </port>
            <port id="o1">
              <data key="type">ttInteger</data>
              <data key="name"/>
            </port>
            <node id="n5::n10::n12">
              <data key="type">rangegen</data>
              <data key="name">RangeGen</data>
              <graph>
                <port id="i1">
                  <data key="type">ttInteger</data>
                  <data key="name"/>
                </port>
                <port id="i2">
                  <data key="type">ttInteger</data>
                  <data key="name"/>
                </port>
                <port id="i3">
                  <data key="type">ttInteger</data>
                  <data key="name"/>
                </port>
                <port id="o1">
                  <data key="type">ttInteger</data>
                  <data key="name"/>
                </port>
                <node id="n5::n10::n12::n13">
                  <data key="type">const-int</data>
                  <data key="name">1</data>
                  <port id="o1">
                    <data key="type">ttInteger</data>
                    <data key="name"/>
                  </port>
                </node>
                <node id="n5::n10::n12::n14">
                  <data key="type">range</data>
                  <data key="name">Range</data>
                  <port id="i1">
                    <data key="type">ttInteger</data>
                    <data key="name"/>
                  </port>
                  <port id="i2">
                    <data key="type">ttInteger</data>
                    <data key="name"/>
                  </port>
                  <port id="o1">
                    <data key="type">ttStream { ttInteger }</data>
                    <data key="name"/>
                  </port>
                </node>
                <node id="n5::n10::n12::n15">
                  <data key="type">for-scatter</data>
                  <data key="name">Scatter</data>
                  <port id="i1">
                    <data key="type">ttStream { ttInteger }</data>
                    <data key="name"/>
                  </port>
                  <port id="o1">
                    <data key="type">ttInteger</data>
                    <data key="name"/>
                  </port>
                  <port id="o2">
                    <data key="type">ttInteger</data>
                    <data key="name"/>
                  </port>
                </node>
                <edge source="n5::n10::n12" sourceport="i1"
                  target="n5::n10::n12::n14" targetport="i2"/>
                <edge source="n5::n10::n12::n13" sourceport="o1"
                  target="n5::n10::n12::n14" targetport="i1"/>
                <edge source="n5::n10::n12::n14" sourceport="o1"
                  target="n5::n10::n12::n15" targetport="i1"/>
                <edge source="n5::n10::n12::n15" sourceport="o1"
                  target="n5::n10::n12" targetport="o1"/>
              </graph>
            </node>
            <node id="n5::n10::n16">
              <data key="type">loopbody</data>
              <data key="name">LoopBody</data>
              <graph>
                <port id="i1">
                  <data key="type">ttInteger</data>
                  <data key="name"/>
                </port>
                <port id="i2">
                  <data key="type">ttInteger</data>
                  <data key="name"/>
                </port>
                <port id="i3">
                  <data key="type">ttInteger</data>
                  <data key="name"/>
                </port>
                <port id="i4">
                  <data key="type">ttInteger</data>
                  <data key="name"/>
                </port>
                <port id="o1">
                  <data key="type">ttInteger</data>
                  <data key="name"/>
                </port>
                <node id="n5::n10::n16::n17">
                  <data key="type">const-function</data>
                  <data key="name">max</data>
                  <port id="o1">
                    <data key="type">ttFunction { ttNull { ttInteger, ttInteger }, ttNull { ttInteger } }</data>
                    <data key="name"/>
                  </port>
                </node>
                <node id="n5::n10::n16::n18">
                  <data key="type">+</data>
                  <data key="name">Add</data>
                  <port id="i1">
                    <data key="type">ttInteger</data>
                    <data key="name"/>
                  </port>
                  <port id="i2">
                    <data key="type">ttInteger</data>
                    <data key="name"/>
                  </port>
                  <port id="o1">
                    <data key="type">ttInteger</data>
                    <data key="name"/>
                  </port>
                </node>
                <node id="n5::n10::n16::n19">
                  <data key="type">call</data>
                  <data key="name">Call</data>
                  <port id="i1">
                    <data key="type">ttFunction { ttNull { ttInteger, ttInteger }, ttNull { ttInteger } }</data>
                    <data key="name"/>
                  </port>
                  <port id="i2">
                    <data key="type">ttInteger</data>
                    <data key="name"/>
                  </port>
                  <port id="i3">
                    <data key="type">ttInteger</data>
                    <data key="name"/>
                  </port>
                  <port id="o1">
                    <data key="type">ttInteger</data>
                    <data key="name"/>
                  </port>
                </node>
                <edge source="n5::n10::n16" sourceport="i1"
                  target="n5::n10::n16::n18" targetport="i2"/>
                <edge source="n5::n10::n16" sourceport="i3"
                  target="n5::n10::n16::n19" targetport="i2"/>
                <edge source="n5::n10::n16" sourceport="i4"
                  target="n5::n10::n16::n18" targetport="i1"/>
                <edge source="n5::n10::n16::n17" sourceport="o1"
                  target="n5::n10::n16::n19" targetport="i1"/>
                <edge source="n5::n10::n16::n18" sourceport="o1"
                  target="n5::n10::n16::n19" targetport="i3"/>
                <edge source="n5::n10::n16::n19" sourceport="o1"
                  target="n5::n10::n16" targetport="o1"/>
              </graph>
            </node>
            <node id="n5::n10::n20">
              <data key="type">for-return</data>
              <data key="name">Ret</data>
              <graph>
                <port id="i1">
                  <data key="type">ttInteger</data>
                  <data key="name"/>
                </port>
                <port id="i2">
                  <data key="type">ttInteger</data>
                  <data key="name"/>
                </port>
                <port id="i3">
                  <data key="type">ttInteger</data>
                  <data key="name"/>
                </port>
                <port id="i4">
                  <data key="type">ttInteger</data>
                  <data key="name"/>
                </port>
                <port id="i5">
                  <data key="type">ttInteger</data>
                  <data key="name"/>
                </port>
                <port id="o1">
                  <data key="type">ttInteger</data>
                  <data key="name"/>
                </port>
                <node id="n5::n10::n20::n21">
                  <data key="type">reduction-sum</data>
                  <data key="name">ReduceSum</data>
                  <port id="i1">
                    <data key="type">ttBoolean</data>
                    <data key="name"/>
                  </port>
                  <port id="i2">
                    <data key="type">ttInteger</data>
                    <data key="name"/>
                  </port>
                  <port id="o1">
                    <data key="type">ttInteger</data>
                    <data key="name"/>
                  </port>
                </node>
                <node id="n5::n10::n20::n22">
                  <data key="type">*</data>
                  <data key="name">Mul</data>
                  <port id="i1">
                    <data key="type">ttInteger</data>
                    <data key="name"/>
                  </port>
                  <port id="i2">
                    <data key="type">ttInteger</data>
                    <data key="name"/>
                  </port>
                  <port id="o1">
                    <data key="type">ttInteger</data>
                    <data key="name"/>
                  </port>
                </node>
                <node id="n5::n10::n20::n23">
                  <data key="type">const-bool</data>
                  <data key="name">true</data>
                  <port id="o1">
                    <data key="type">ttBoolean</data>
                    <data key="name"/>
                  </port>
                </node>
                <edge source="n5::n10::n20" sourceport="i1"
                  target="n5::n10::n20::n22" targetport="i1"/>
                <edge source="n5::n10::n20" sourceport="i2"
                  target="n5::n10::n20::n22" targetport="i2"/>
                <edge source="n5::n10::n20::n21" sourceport="o1"
                  target="n5::n10::n20" targetport="o1"/>
                <edge source="n5::n10::n20::n22" sourceport="o1"
                  target="n5::n10::n20::n21" targetport="i2"/>
                <edge source="n5::n10::n20::n23" sourceport="o1"
                  target="n5::n10::n20::n21" targetport="i1"/>
              </graph>
            </node>
          </graph>
        </node>
        <edge source="n5" sourceport="i1" target="n5::n7" targetport="i2"/>
        <edge source="n5" sourceport="i1" target="n5::n10" targetport="i1"/>
        <edge source="n5" sourceport="i2" target="n5::n7" targetport="i3"/>
        <edge source="n5" sourceport="i3" target="n5::n9" targetport="i2"/>
        <edge source="n5::n6" sourceport="o1" target="n5::n7" targetport="i1"/>
        <edge source="n5::n7" sourceport="o1" target="n5::n10" targetport="i2"/>
        <edge source="n5::n8" sourceport="o1" target="n5::n9" targetport="i1"/>
        <edge source="n5::n9" sourceport="o1" target="n5::n10" targetport="i3"/>
        <edge source="n5::n10" sourceport="o1" target="n5" targetport="o1"/>
      </graph>
    </node>
  </graph>
</graphml>