<?xml version="1.0" encoding="UTF-8"?>
<graphml xmlns="http://graphml.graphdrawing.org/xmlns"
  xmlns:xsi="http://www.w3.org/2001/XMLSchema-instance"
  xsi:schemaLocation="http://graphml.graphdrawing.org/xmlns
    http://graphml.graphdrawing.org/xmlns/1.0/graphml.xsd">
    <key id="type" for="node" attr.name="nodetype" attr.type="string"/>
    <key id="location" for="node" attr.name="location" attr.type="string" />
    <graph id="id" edgedefault="directed">
    <node id="node14">
      <data key="type">Lambda</data>
      <data key="functionName">Fib</data>
      <data key="location">1:0-8:0</data>
      <port name="in0" type="integer"/>
      <port name="out0" type="integer"/>
      <graph id="node14_graph" edgedefault="directed">
        <node id="node10">
          <data key="type">If</data>
          <data key="location">2:2-6:8</data>
          <port name="in0" type="integer"/>
          <port name="out0" type="integer"/>
          <graph id="node10_graph" edgedefault="directed">
            <node id="node13">
              <data key="type">Condition</data>
              <data key="location">not applicable</data>
              <port name="in0" type="integer"/>
              <port name="out0" type="integer"/>
              <graph id="node13_graph" edgedefault="directed">
                <node id="node2">
                  <data key="type">Binary</data>
                  <data key="operator">&lt;</data>
                  <data key="location">2:5-2:10</data>
                  <port name="in0" type="integer"/>
                  <port name="in1" type="integer"/>
                  <port name="out0" type="boolean"/>
                </node>
                <node id="node1">
                  <data key="type">Literal</data>
                  <data key="value">2</data>
                  <data key="location">2:9-2:10</data>
                  <port name="out0" type="integer"/>
                </node>
                <edge source="node2" target="node13" sourceport="out0" targetport="out0">
                  <data key="type">boolean</data>
                </edge>
                <edge source="node13" target="node2" sourceport="in0" targetport="in0">
                  <data key="type">integer</data>
                </edge>
                <edge source="node1" target="node2" sourceport="out0" targetport="in1">
                  <data key="type">integer</data>
                </edge>
              </graph>
            </node>
            <node id="node11">
              <data key="type">Then</data>
              <data key="location">not applicable</data>
              <port name="in0" type="integer"/>
              <port name="out0" type="integer"/>
            </node>
            <node id="node12">
              <data key="type">Else</data>
              <data key="location">not applicable</data>
              <port name="in0" type="integer"/>
              <port name="out0" type="integer"/>
              <graph id="node12_graph" edgedefault="directed">
                <node id="node9">
                  <data key="type">Binary</data>
                  <data key="operator">+</data>
                  <data key="location">5:4-5:28</data>
                  <port name="in0" type="integer"/>
                  <port name="in1" type="integer"/>
                  <port name="out0" type="integer"/>
                </node>
                <node id="node5">
                  <data key="type">FunctionCall</data>
                  <data key="location">5:4-5:16</data>
                  <data key="callee">Fib</data>
                  <port name="in0" type="integer"/>
                  <port name="out0" type="integer"/>
                </node>
                <node id="node4">
                  <data key="type">Binary</data>
                  <data key="operator">-</data>
                  <data key="location">5:9-5:14</data>
                  <port name="in0" type="integer"/>
                  <port name="in1" type="integer"/>
                  <port name="out0" type="integer"/>
                </node>
                <node id="node3">
                  <data key="type">Literal</data>
                  <data key="value">1</data>
                  <data key="location">5:13-5:14</data>
                  <port name="out0" type="integer"/>
                </node>
                <node id="node8">
                  <data key="type">FunctionCall</data>
                  <data key="location">5:19-5:28</data>
                  <data key="callee">Fib</data>
                  <port name="in0" type="integer"/>
                  <port name="out0" type="integer"/>
                </node>
                <node id="node7">
                  <data key="type">Binary</data>
                  <data key="operator">-</data>
                  <data key="location">5:24-5:27</data>
                  <port name="in0" type="integer"/>
                  <port name="in1" type="integer"/>
                  <port name="out0" type="integer"/>
                </node>
                <node id="node6">
                  <data key="type">Literal</data>
                  <data key="value">2</data>
                  <data key="location">5:26-5:27</data>
                  <port name="out0" type="integer"/>
                </node>
                <edge source="node9" target="node12" sourceport="out0" targetport="out0">
                  <data key="type">integer</data>
                </edge>
                <edge source="node5" target="node9" sourceport="out0" targetport="in0">
                  <data key="type">integer</data>
                </edge>
                <edge source="node8" target="node9" sourceport="out0" targetport="in1">
                  <data key="type">integer</data>
                </edge>
                <edge source="node4" target="node5" sourceport="out0" targetport="in0">
                  <data key="type">integer</data>
                </edge>
                <edge source="node12" target="node4" sourceport="in0" targetport="in0">
                  <data key="type">integer</data>
                </edge>
                <edge source="node3" target="node4" sourceport="out0" targetport="in1">
                  <data key="type">integer</data>
                </edge>
                <edge source="node7" target="node8" sourceport="out0" targetport="in0">
                  <data key="type">integer</data>
                </edge>
                <edge source="node12" target="node7" sourceport="in0" targetport="in0">
                  <data key="type">integer</data>
                </edge>
                <edge source="node6" target="node7" sourceport="out0" targetport="in1">
                  <data key="type">integer</data>
                </edge>
              </graph>
            </node>
            <edge source="node11" target="node11" sourceport="out0" targetport="in0">
              <data key="type">integer</data>
            </edge>
          </graph>
        </node>
        <edge source="node10" target="node14" sourceport="out0" targetport="out0">
          <data key="type">integer</data>
        </edge>
      </graph>
    </node>
  </graph>
</graphml>