<?xml version="1.0" encoding="UTF-8"?>
<graphml xmlns="http://graphml.graphdrawing.org/xmlns"  xmlns:xsi="http://www.w3.org/2001/XMLSchema-instance"
xsi:schemaLocation="http://graphml.graphdrawing.org/xmlns http://graphml.graphdrawing.org/xmlns/1.0/graphml.xsd">
	<graph id="cross" edgedefault="undirected">
		<node id="n0"> 
			<graph id="g0:" edgedefault="undirected">
				<node id="n0::n0"/>
			</graph>
		</node>

		<node id="n1"> 
			<graph id="g1:" edgedefault="undirected">
				<node id="n1::n0"/>
			</graph>
		</node>
		
		<node id="n2"> 
			<graph id="g2:" edgedefault="undirected">
				<node id="n2::n0"/>
			</graph>
		</node>
		
		<node id="n3"> 
			<graph id="g3:" edgedefault="undirected">
				<node id="n3::n0"/>
			</graph>
		</node>
		
		<edge id="e1" source="n0::n0" target="n2::n0"/>
		<edge id="e2" source="n1::n0" target="n3::n0"/>
	</graph>
	
	<graph id="side ports test" edgedefault="undirected">
		<node id="n0"> 
			<graph id="g0:" edgedefault="undirected">
				<node id="n0::n0"/>
			</graph>
		</node>

		<node id="n1"> 
			<graph id="g1:" edgedefault="undirected">
				<node id="n1::n0"/>
			</graph>
		</node>
		
		<node id="n2"> 
			<graph id="g2:" edgedefault="undirected">
				<node id="n2::n0"/>
			</graph>
		</node>
		
		<node id="n3"> 
			<graph id="g3:" edgedefault="undirected">
				<node id="n3::n0"/>
			</graph>
		</node>

		<node id="n4"/> 
		<node id="n5"/> 
		
		<edge id="e1" source="n0::n0" target="n2::n0"/>
		<edge id="e2" source="n1::n0" target="n3::n0"/>
	</graph>

	<graph id="top-bottom ports test" edgedefault="undirected">
		<node id="n5"/>

		<node id="n1"> 
			<graph id="g1:" edgedefault="undirected">
				<node id="n1::n0"/>
			</graph>
		</node>
		
		<node id="n3"> 
			<graph id="g2:" edgedefault="undirected">
				<node id="n3::n0"/>
			</graph>
		</node>

		<node id="n2"/>
		
		<node id="n4"> 
			<graph id="g3:" edgedefault="undirected">
				<node id="n4::n0"/>
			</graph>
		</node>
		
		<node id="n0"> 
			<graph id="g0:" edgedefault="undirected">
				<node id="n0::n0"/>
			</graph>
		</node>

		<edge id="e1" source="n0::n0" target="n3::n0"/>
		<edge id="e2" source="n1::n0" target="n4::n0"/>
	</graph>
</graphml>