<?xml version="1.0" encoding="UTF-8"?>
<!-- This file was written by the internal XML-Handler of Y-Files.-->
<graphml>
	<graph id="G">
		<node id="n0"/>
		<node id="n1"/>
		<node id="n2"/>
		<node id="n3"/>
		<node id="n4"/>
		<node id="n5"/>
		<node id="n6"/>
		<node id="n7"/>
		<node id="n8"/>
		<node id="n9"/>
		<node id="n10"/>
		<node id="n11"/>
		<node id="n12"/>
		<node id="n13"/>
		<node id="n14"/>
		<node id="n15"/>
		<node id="n16"/>
		<node id="n17"/>
		<node id="n18"/>
		<node id="n19"/>
		<node id="n20"/>
		<node id="n21"/>
		<node id="n22"/>
		<node id="n23"/>
		<node id="n24"/>
		<node id="n25"/>
		<node id="n26"/>
		<node id="n27"/>
		<node id="n28"/>
		<node id="n29"/>
		<node id="n30"/>
		<node id="n31"/>
		<node id="n32"/>
		<node id="n33"/>
		<node id="n34"/>
		<node id="n35"/>
		<node id="n36"/>
		<node id="n37"/>
		<node id="n38"/>
		<node id="n39"/>
		<node id="n40"/>
		<node id="n41"/>
		<node id="n42"/>
		<node id="n43"/>
		<node id="n44"/>
		<node id="n45"/>
		<node id="n46"/>
		<node id="n47"/>
		<node id="n48"/>
		<node id="n49"/>
		<node id="n50"/>
		<node id="n51"/>
		<node id="n52"/>
		<node id="n53"/>
		<node id="n54"/>
		<node id="n55"/>
		<node id="n56"/>
		<node id="n57"/>
		<node id="n58"/>
		<node id="n59"/>
		<node id="n60"/>
		<node id="n61"/>
		<node id="n62"/>
		<node id="n63"/>
		<node id="n64"/>
		<node id="n65"/>
		<node id="n66"/>
		<node id="n67"/>
		<node id="n68"/>
		<node id="n69"/>
		<node id="n70"/>
		<node id="n71"/>
		<node id="n72"/>
		<node id="n73"/>
		<node id="n74"/>
		<node id="n75"/>
		<node id="n76"/>
		<node id="n77"/>
		<node id="n78"/>
		<node id="n79"/>
		<node id="n80"/>
		<node id="n81"/>
		<node id="n82"/>
		<node id="n83"/>
		<node id="n84"/>
		<node id="n85"/>
		<node id="n86"/>
		<node id="n87"/>
		<node id="n88"/>
		<node id="n89"/>
		<node id="n90"/>
		<node id="n91"/>
		<node id="n92"/>
		<node id="n93"/>
		<node id="n94"/>
		<node id="n95"/>
		<node id="n96"/>
		<node id="n97"/>
		<node id="n98"/>
		<node id="n99"/>
		<edge id="e0" source="n1" target="n2"/>
		<edge id="e1" source="n1" target="n3"/>
		<edge id="e2" source="n24" target="n2"/>
		<edge id="e3" source="n24" target="n25"/>
		<edge id="e4" source="n25" target="n27"/>
		<edge id="e5" source="n27" target="n2"/>
		<edge id="e6" source="n89" target="n2"/>
		<edge id="e7" source="n89" target="n25"/>
		<edge id="e8" source="n89" target="n64"/>
		<edge id="e9" source="n89" target="n65"/>
		<edge id="e10" source="n89" target="n90"/>
		<edge id="e11" source="n64" target="n2"/>
		<edge id="e12" source="n64" target="n62"/>
		<edge id="e13" source="n62" target="n2"/>
		<edge id="e14" source="n62" target="n3"/>
		<edge id="e15" source="n62" target="n66"/>
		<edge id="e16" source="n58" target="n2"/>
		<edge id="e17" source="n58" target="n3"/>
		<edge id="e18" source="n58" target="n44"/>
		<edge id="e19" source="n58" target="n47"/>
		<edge id="e20" source="n58" target="n59"/>
		<edge id="e21" source="n58" target="n60"/>
		<edge id="e22" source="n58" target="n61"/>
		<edge id="e23" source="n44" target="n45"/>
		<edge id="e24" source="n44" target="n46"/>
		<edge id="e25" source="n46" target="n28"/>
		<edge id="e26" source="n46" target="n47"/>
		<edge id="e27" source="n28" target="n2"/>
		<edge id="e28" source="n28" target="n29"/>
		<edge id="e29" source="n28" target="n30"/>
		<edge id="e30" source="n28" target="n31"/>
		<edge id="e31" source="n28" target="n32"/>
		<edge id="e32" source="n28" target="n33"/>
		<edge id="e33" source="n28" target="n34"/>
		<edge id="e34" source="n28" target="n35"/>
		<edge id="e35" source="n28" target="n36"/>
		<edge id="e36" source="n28" target="n37"/>
		<edge id="e37" source="n28" target="n38"/>
		<edge id="e38" source="n28" target="n39"/>
		<edge id="e39" source="n28" target="n40"/>
		<edge id="e40" source="n28" target="n41"/>
		<edge id="e41" source="n28" target="n42"/>
		<edge id="e42" source="n28" target="n43"/>
		<edge id="e43" source="n55" target="n2"/>
		<edge id="e44" source="n55" target="n28"/>
		<edge id="e45" source="n55" target="n29"/>
		<edge id="e46" source="n55" target="n30"/>
		<edge id="e47" source="n55" target="n31"/>
		<edge id="e48" source="n55" target="n32"/>
		<edge id="e49" source="n55" target="n33"/>
		<edge id="e50" source="n55" target="n34"/>
		<edge id="e51" source="n55" target="n35"/>
		<edge id="e52" source="n55" target="n36"/>
		<edge id="e53" source="n55" target="n37"/>
		<edge id="e54" source="n55" target="n38"/>
		<edge id="e55" source="n55" target="n39"/>
		<edge id="e56" source="n55" target="n40"/>
		<edge id="e57" source="n55" target="n41"/>
		<edge id="e58" source="n55" target="n42"/>
		<edge id="e59" source="n55" target="n43"/>
		<edge id="e60" source="n55" target="n47"/>
		<edge id="e61" source="n55" target="n48"/>
		<edge id="e62" source="n55" target="n56"/>
		<edge id="e63" source="n55" target="n57"/>
		<edge id="e64" source="n67" target="n2"/>
		<edge id="e65" source="n67" target="n28"/>
		<edge id="e66" source="n67" target="n29"/>
		<edge id="e67" source="n67" target="n30"/>
		<edge id="e68" source="n67" target="n31"/>
		<edge id="e69" source="n67" target="n32"/>
		<edge id="e70" source="n67" target="n33"/>
		<edge id="e71" source="n67" target="n34"/>
		<edge id="e72" source="n67" target="n35"/>
		<edge id="e73" source="n67" target="n36"/>
		<edge id="e74" source="n67" target="n37"/>
		<edge id="e75" source="n67" target="n38"/>
		<edge id="e76" source="n67" target="n39"/>
		<edge id="e77" source="n67" target="n40"/>
		<edge id="e78" source="n67" target="n41"/>
		<edge id="e79" source="n67" target="n42"/>
		<edge id="e80" source="n67" target="n43"/>
		<edge id="e81" source="n67" target="n47"/>
		<edge id="e82" source="n67" target="n48"/>
		<edge id="e83" source="n67" target="n55"/>
		<edge id="e84" source="n67" target="n56"/>
		<edge id="e85" source="n67" target="n57"/>
		<edge id="e86" source="n94" target="n31"/>
		<edge id="e87" source="n52" target="n2"/>
		<edge id="e88" source="n52" target="n33"/>
		<edge id="e89" source="n68" target="n2"/>
		<edge id="e90" source="n68" target="n3"/>
		<edge id="e91" source="n68" target="n6"/>
		<edge id="e92" source="n68" target="n17"/>
		<edge id="e93" source="n68" target="n47"/>
		<edge id="e94" source="n68" target="n52"/>
		<edge id="e95" source="n68" target="n55"/>
		<edge id="e96" source="n68" target="n59"/>
		<edge id="e97" source="n68" target="n64"/>
		<edge id="e98" source="n68" target="n65"/>
		<edge id="e99" source="n68" target="n67"/>
		<edge id="e100" source="n68" target="n69"/>
		<edge id="e101" source="n6" target="n7"/>
		<edge id="e102" source="n6" target="n8"/>
		<edge id="e103" source="n6" target="n9"/>
		<edge id="e104" source="n6" target="n10"/>
		<edge id="e105" source="n11" target="n6"/>
		<edge id="e106" source="n11" target="n7"/>
		<edge id="e107" source="n11" target="n12"/>
		<edge id="e108" source="n12" target="n5"/>
		<edge id="e109" source="n12" target="n13"/>
		<edge id="e110" source="n12" target="n14"/>
		<edge id="e111" source="n4" target="n5"/>
		<edge id="e112" source="n4" target="n6"/>
		<edge id="e113" source="n13" target="n5"/>
		<edge id="e114" source="n14" target="n5"/>
		<edge id="e115" source="n14" target="n77"/>
		<edge id="e116" source="n77" target="n5"/>
		<edge id="e117" source="n77" target="n78"/>
		<edge id="e118" source="n77" target="n79"/>
		<edge id="e119" source="n78" target="n5"/>
		<edge id="e120" source="n78" target="n80"/>
		<edge id="e121" source="n78" target="n81"/>
		<edge id="e122" source="n9" target="n14"/>
		<edge id="e123" source="n9" target="n82"/>
		<edge id="e124" source="n83" target="n5"/>
		<edge id="e125" source="n8" target="n26"/>
		<edge id="e126" source="n23" target="n8"/>
		<edge id="e127" source="n23" target="n24"/>
		<edge id="e128" source="n17" target="n18"/>
		<edge id="e129" source="n16" target="n17"/>
		<edge id="e130" source="n16" target="n18"/>
		<edge id="e131" source="n16" target="n19"/>
		<edge id="e132" source="n16" target="n20"/>
		<edge id="e133" source="n16" target="n21"/>
		<edge id="e134" source="n16" target="n22"/>
		<edge id="e135" source="n22" target="n20"/>
		<edge id="e136" source="n15" target="n16"/>
		<edge id="e137" source="n47" target="n48"/>
		<edge id="e138" source="n93" target="n48"/>
		<edge id="e139" source="n97" target="n2"/>
		<edge id="e140" source="n97" target="n3"/>
		<edge id="e141" source="n97" target="n25"/>
		<edge id="e142" source="n97" target="n48"/>
		<edge id="e143" source="n71" target="n37"/>
		<edge id="e144" source="n71" target="n47"/>
		<edge id="e145" source="n71" target="n53"/>
		<edge id="e146" source="n71" target="n54"/>
		<edge id="e147" source="n71" target="n55"/>
		<edge id="e148" source="n71" target="n70"/>
		<edge id="e149" source="n71" target="n72"/>
		<edge id="e150" source="n71" target="n73"/>
		<edge id="e151" source="n71" target="n74"/>
		<edge id="e152" source="n71" target="n75"/>
		<edge id="e153" source="n76" target="n37"/>
		<edge id="e154" source="n76" target="n47"/>
		<edge id="e155" source="n76" target="n55"/>
		<edge id="e156" source="n76" target="n72"/>
		<edge id="e157" source="n76" target="n73"/>
		<edge id="e158" source="n76" target="n75"/>
		<edge id="e159" source="n95" target="n37"/>
		<edge id="e160" source="n96" target="n37"/>
		<edge id="e161" source="n53" target="n54"/>
		<edge id="e162" source="n70" target="n54"/>
		<edge id="e163" source="n59" target="n2"/>
		<edge id="e164" source="n59" target="n62"/>
		<edge id="e165" source="n65" target="n2"/>
		<edge id="e166" source="n61" target="n63"/>
		<edge id="e167" source="n61" target="n64"/>
		<edge id="e168" source="n61" target="n65"/>
		<edge id="e169" source="n60" target="n63"/>
		<edge id="e170" source="n92" target="n58"/>
		<edge id="e171" source="n92" target="n63"/>
		<edge id="e172" source="n92" target="n64"/>
		<edge id="e173" source="n92" target="n65"/>
		<edge id="e174" source="n98" target="n2"/>
		<edge id="e175" source="n98" target="n33"/>
		<edge id="e176" source="n91" target="n29"/>
		<edge id="e177" source="n49" target="n28"/>
		<edge id="e178" source="n49" target="n46"/>
		<edge id="e179" source="n49" target="n50"/>
		<edge id="e180" source="n51" target="n50"/>
		<edge id="e181" source="n88" target="n2"/>
		<edge id="e182" source="n88" target="n3"/>
		<edge id="e183" source="n66" target="n2"/>
		<edge id="e184" source="n66" target="n88"/>
		<edge id="e185" source="n99" target="n25"/>
		<edge id="e186" source="n84" target="n85"/>
		<edge id="e187" source="n84" target="n86"/>
		<edge id="e188" source="n84" target="n87"/>
		<edge id="e189" source="n0" target="n10"/>
		<edge id="e190" source="n0" target="n85"/>
	</graph>
</graphml>