<?xml version="1.0" encoding="UTF-8"?>
<!-- This file was written by the internal XML-Handler of Y-Files.-->
<graphml>
	<graph id="G">
		<node id="n0"/>
		<node id="n1"/>
		<node id="n2"/>
		<node id="n3"/>
		<node id="n4"/>
		<node id="n5"/>
		<node id="n6"/>
		<node id="n7"/>
		<node id="n8"/>
		<node id="n9"/>
		<node id="n10"/>
		<node id="n11"/>
		<node id="n12"/>
		<node id="n13"/>
		<node id="n14"/>
		<node id="n15"/>
		<node id="n16"/>
		<node id="n17"/>
		<node id="n18"/>
		<node id="n19"/>
		<node id="n20"/>
		<node id="n21"/>
		<node id="n22"/>
		<node id="n23"/>
		<node id="n24"/>
		<node id="n25"/>
		<node id="n26"/>
		<node id="n27"/>
		<node id="n28"/>
		<node id="n29"/>
		<node id="n30"/>
		<node id="n31"/>
		<node id="n32"/>
		<node id="n33"/>
		<node id="n34"/>
		<node id="n35"/>
		<node id="n36"/>
		<node id="n37"/>
		<node id="n38"/>
		<node id="n39"/>
		<node id="n40"/>
		<node id="n41"/>
		<node id="n42"/>
		<node id="n43"/>
		<node id="n44"/>
		<node id="n45"/>
		<node id="n46"/>
		<node id="n47"/>
		<node id="n48"/>
		<node id="n49"/>
		<node id="n50"/>
		<node id="n51"/>
		<node id="n52"/>
		<node id="n53"/>
		<node id="n54"/>
		<node id="n55"/>
		<node id="n56"/>
		<node id="n57"/>
		<node id="n58"/>
		<node id="n59"/>
		<edge id="e0" source="n0" target="n1"/>
		<edge id="e1" source="n0" target="n2"/>
		<edge id="e2" source="n0" target="n3"/>
		<edge id="e3" source="n0" target="n4"/>
		<edge id="e4" source="n0" target="n5"/>
		<edge id="e5" source="n0" target="n6"/>
		<edge id="e6" source="n0" target="n7"/>
		<edge id="e7" source="n0" target="n8"/>
		<edge id="e8" source="n1" target="n9"/>
		<edge id="e9" source="n1" target="n10"/>
		<edge id="e10" source="n1" target="n11"/>
		<edge id="e11" source="n1" target="n12"/>
		<edge id="e12" source="n1" target="n13"/>
		<edge id="e13" source="n1" target="n14"/>
		<edge id="e14" source="n9" target="n37"/>
		<edge id="e15" source="n9" target="n39"/>
		<edge id="e16" source="n37" target="n31"/>
		<edge id="e17" source="n37" target="n38"/>
		<edge id="e18" source="n31" target="n25"/>
		<edge id="e19" source="n31" target="n35"/>
		<edge id="e20" source="n31" target="n36"/>
		<edge id="e21" source="n16" target="n19"/>
		<edge id="e22" source="n16" target="n25"/>
		<edge id="e23" source="n16" target="n26"/>
		<edge id="e24" source="n16" target="n27"/>
		<edge id="e25" source="n16" target="n28"/>
		<edge id="e26" source="n16" target="n29"/>
		<edge id="e27" source="n16" target="n30"/>
		<edge id="e28" source="n7" target="n13"/>
		<edge id="e29" source="n7" target="n16"/>
		<edge id="e30" source="n7" target="n17"/>
		<edge id="e31" source="n7" target="n19"/>
		<edge id="e32" source="n7" target="n20"/>
		<edge id="e33" source="n5" target="n9"/>
		<edge id="e34" source="n5" target="n11"/>
		<edge id="e35" source="n5" target="n12"/>
		<edge id="e36" source="n5" target="n13"/>
		<edge id="e37" source="n5" target="n15"/>
		<edge id="e38" source="n5" target="n16"/>
		<edge id="e39" source="n3" target="n11"/>
		<edge id="e40" source="n23" target="n2"/>
		<edge id="e41" source="n23" target="n3"/>
		<edge id="e42" source="n23" target="n4"/>
		<edge id="e43" source="n23" target="n5"/>
		<edge id="e44" source="n23" target="n6"/>
		<edge id="e45" source="n23" target="n7"/>
		<edge id="e46" source="n23" target="n8"/>
		<edge id="e47" source="n23" target="n24"/>
		<edge id="e48" source="n2" target="n9"/>
		<edge id="e49" source="n2" target="n15"/>
		<edge id="e50" source="n4" target="n11"/>
		<edge id="e51" source="n4" target="n12"/>
		<edge id="e52" source="n8" target="n9"/>
		<edge id="e53" source="n8" target="n11"/>
		<edge id="e54" source="n8" target="n12"/>
		<edge id="e55" source="n8" target="n13"/>
		<edge id="e56" source="n8" target="n14"/>
		<edge id="e57" source="n8" target="n18"/>
		<edge id="e58" source="n8" target="n21"/>
		<edge id="e59" source="n6" target="n9"/>
		<edge id="e60" source="n6" target="n10"/>
		<edge id="e61" source="n6" target="n11"/>
		<edge id="e62" source="n6" target="n13"/>
		<edge id="e63" source="n6" target="n14"/>
		<edge id="e64" source="n6" target="n16"/>
		<edge id="e65" source="n6" target="n17"/>
		<edge id="e66" source="n6" target="n18"/>
		<edge id="e67" source="n10" target="n41"/>
		<edge id="e68" source="n10" target="n42"/>
		<edge id="e69" source="n40" target="n41"/>
		<edge id="e70" source="n17" target="n43"/>
		<edge id="e71" source="n17" target="n44"/>
		<edge id="e72" source="n17" target="n45"/>
		<edge id="e73" source="n17" target="n46"/>
		<edge id="e74" source="n17" target="n47"/>
		<edge id="e75" source="n21" target="n33"/>
		<edge id="e76" source="n21" target="n34"/>
		<edge id="e77" source="n28" target="n31"/>
		<edge id="e78" source="n28" target="n32"/>
		<edge id="e79" source="n22" target="n0"/>
		<edge id="e80" source="n48" target="n49"/>
		<edge id="e81" source="n48" target="n50"/>
		<edge id="e82" source="n48" target="n51"/>
		<edge id="e83" source="n48" target="n52"/>
		<edge id="e84" source="n48" target="n53"/>
		<edge id="e85" source="n48" target="n54"/>
		<edge id="e86" source="n48" target="n55"/>
		<edge id="e87" source="n48" target="n56"/>
		<edge id="e88" source="n57" target="n58"/>
		<edge id="e89" source="n57" target="n59"/>
		<edge id="e90" source="n20" target="n49"/>
		<edge id="e91" source="n20" target="n58"/>
	</graph>
</graphml>