<?xml version="1.0" encoding="UTF-8" standalone="no"?>
<graphml xmlns="http://graphml.graphdrawing.org/xmlns" xmlns:java="http://www.yworks.com/xml/yfiles-common/1.0/java" xmlns:sys="http://www.yworks.com/xml/yfiles-common/markup/primitives/2.0" xmlns:x="http://www.yworks.com/xml/yfiles-common/markup/2.0" xmlns:xsi="http://www.w3.org/2001/XMLSchema-instance" xmlns:y="http://www.yworks.com/xml/graphml" xmlns:yed="http://www.yworks.com/xml/yed/3" xsi:schemaLocation="http://graphml.graphdrawing.org/xmlns http://www.yworks.com/xml/schema/graphml/1.1/ygraphml.xsd">
      <graph edgedefault="directed" id="intersection">
           <node id = "INPUT"/>
           <node id = "v1"/>
           <node id = "p_v1"/>
           <node id = "v2"/>
           <node id = "v3"/>
           <node id = "v4"/>
           <node id = "c_v4"/>
           <node id = "f1"/>
           <node id = "f2"/>
           <node id = "f3"/>
           <node id = "f3_out"/>
           <node id = "b1"/>
           <node id = "b2"/>
           <node id = "b3"/>
           <node id = "b4"/>
           <node id = "v3_f4"/>
           <node id = "v3_out"/>
           <edge source = "INPUT" target = "v1"/>
           <edge source = "p_v1" target = "v1"/>
           <edge source = "v1" target = "v2"/>
           <edge source = "v2" target = "v3"/>
           <edge source = "v3" target = "v4"/>
           <edge source = "v4" target = "c_v4"/>
           <edge source = "v2" target = "v4"/>
           <edge source = "v1" target = "f1"/>
           <edge source = "f1" target = "f2"/>
           <edge source = "f2" target = "f3"/>
           <edge source = "f3" target = "f3_out"/>
           <edge source = "p_v1" target = "b1"/>
           <edge source = "b1" target = "b2"/>
           <edge source = "b2" target = "b3"/>
           <edge source = "b3" target = "b4"/>
           <edge source = "b4" target = "c_v4"/>
           <edge source = "v3" target = "v3_f4"/>
           <edge source = "v3_f4" target = "v3_out"/>
       </graph>
</graphml>
